AWSTATS DATA FILE 7.0 (build 1.971)
# If you remove this file, all statistics for date 201501 will be lost/reset.
# Last config file used to build this data file was /etc/awstats/awstats.adm.gedza.ru.conf.

# Position (offset in bytes) in this file for beginning of each section for
# direct I/O access. If you made changes somewhere in this file, you should
# also remove completely the MAP section (AWStats will rewrite it at next
# update).
BEGIN_MAP 27
POS_GENERAL 1992                
POS_TIME 2663                
POS_VISITOR 6135                
POS_DAY 6419                
POS_DOMAIN 3296                
POS_LOGIN 3528                
POS_ROBOT 3683                
POS_WORMS 3815                
POS_EMAILSENDER 3946                
POS_EMAILRECEIVER 4089                
POS_SESSION 6754                
POS_SIDER 6949                
POS_FILETYPES 4224                
POS_DOWNLOADS 4459                
POS_OS 4507                
POS_BROWSER 4582                
POS_SCREENSIZE 4757                
POS_UNKNOWNREFERER 4831                
POS_UNKNOWNREFERERBROWSER 4918                
POS_ORIGIN 5000                
POS_SEREFERRALS 5137                
POS_PAGEREFS 5281                
POS_SEARCHWORDS 5429                
POS_KEYWORDS 5581                
POS_MISC 2325                
POS_ERRORS 5640                
POS_CLUSTER 3384                
POS_SIDER_404 5750                
END_MAP

# LastLine    = Date of last record processed - Last record line number in last log - Last record offset in last log - Last record signature value
# FirstTime   = Date of first visit for history file
# LastTime    = Date of last visit for history file
# LastUpdate  = Date of last update - Nb of parsed records - Nb of parsed old records - Nb of parsed new records - Nb of parsed corrupted - Nb of parsed dropped
# TotalVisits = Number of visits
# TotalUnique = Number of unique visitors
# MonthHostsKnown   = Number of hosts known
# MonthHostsUnKnown = Number of hosts unknown
BEGIN_GENERAL 8
LastLine 20150203111726 1 0 45731452136
FirstTime 20150104180307
LastTime 20150130145711
LastUpdate 20150203121001 1 0 0 0 0
TotalVisits 20                  
TotalUnique 5                   
MonthHostsKnown 0                   
MonthHostsUnknown 5                   
END_GENERAL

# Misc ID - Pages - Hits - Bandwidth
BEGIN_MISC 10
QuickTimeSupport 0 0 0
JavaEnabled 0 0 0
JavascriptDisabled 0 0 0
PDFSupport 0 0 0
WindowsMediaPlayerSupport 0 0 0
AddToFavourites 0 596 0
RealPlayerSupport 0 0 0
TotalMisc 0 0 0
DirectorSupport 0 0 0
FlashSupport 0 0 0
END_MISC

# Hour - Pages - Hits - Bandwidth - Not viewed Pages - Not viewed Hits - Not viewed Bandwidth
BEGIN_TIME 24
0 0 0 0 0 0 0
1 0 0 0 0 0 0
2 0 0 0 0 0 0
3 0 0 0 0 0 0
4 0 0 0 0 0 0
5 0 0 0 0 0 0
6 0 0 0 0 0 0
7 0 0 0 0 0 0
8 0 0 0 0 0 0
9 0 0 0 0 0 0
10 106 146 2780728 43 145 1155034
11 143 343 9667029 44 140 981076
12 13 22 267109 6 13 62231
13 23 30 586782 10 25 108137
14 255 328 6671244 108 339 2853702
15 78 108 2086496 35 88 690024
16 52 114 7165780 23 63 464809
17 71 135 4745610 27 93 900010
18 71 131 5901726 24 88 689665
19 6 13 97454 2 8 33116
20 0 0 0 0 0 0
21 0 0 0 0 0 0
22 0 0 0 0 0 0
23 0 0 0 0 0 0
END_TIME

# Domain - Pages - Hits - Bandwidth
# The 10 first Pages must be first (order not required for others)
BEGIN_DOMAIN 1
ip 818 1370 39969958
END_DOMAIN

# Cluster ID - Pages - Hits - Bandwidth
BEGIN_CLUSTER 0
END_CLUSTER

# Login - Pages - Hits - Bandwidth - Last visit
# The 10 first Pages must be first (order not required for others)
BEGIN_LOGIN 0
END_LOGIN

# Robot ID - Hits - Bandwidth - Last visit - Hits on robots.txt
# The 10 first Hits must be first (order not required for others)
BEGIN_ROBOT 0
END_ROBOT

# Worm ID - Hits - Bandwidth - Last visit
# The 5 first Hits must be first (order not required for others)
BEGIN_WORMS 0
END_WORMS

# EMail - Hits - Bandwidth - Last visit
# The 20 first Hits must be first (order not required for others)
BEGIN_EMAILSENDER 0
END_EMAILSENDER

# EMail - Hits - Bandwidth - Last visit
# The 20 first hits must be first (order not required for others)
BEGIN_EMAILRECEIVER 0
END_EMAILRECEIVER

# Files type - Hits - Bandwidth - Bandwidth without compression - Bandwidth after compression
BEGIN_FILETYPES 9
css 121 2564729 0 0
eot 2 6224 0 0
png 46 662280 0 0
woff 7 305004 0 0
html 454 8248432 0 0
jpg 216 16950805 0 0
js 163 4554730 0 0
Unknown 355 6673476 0 0
gif 6 4278 0 0
END_FILETYPES

# Downloads - Hits - Bandwidth
BEGIN_DOWNLOADS 0
END_DOWNLOADS

# OS ID - Hits
BEGIN_OS 3
winlong 53
linuxubuntu 43
win7 1274
END_OS

# Browser ID - Hits
BEGIN_BROWSER 7
chrome39.0.2171.99 81
chrome39.0.2171.95 863
mozilla 29
msie7.0 1
chrome40.0.2214.93 274
chrome37.0.2062.120 43
opera9.80 79
END_BROWSER

# Screen size - Hits
BEGIN_SCREENSIZE 0
END_SCREENSIZE

# Unknown referer OS - Last visit date
BEGIN_UNKNOWNREFERER 0
END_UNKNOWNREFERER

# Unknown referer Browser - Last visit date
BEGIN_UNKNOWNREFERERBROWSER 0
END_UNKNOWNREFERERBROWSER

# Origin - Pages - Hits 
BEGIN_ORIGIN 6
From0 25 25
From1 0 0
From2 0 0
From3 0 0
From4 793 1345
From5 0 0
END_ORIGIN

# Search engine referers ID - Pages - Hits
BEGIN_SEREFERRALS 0
END_SEREFERRALS

# External page referers - Pages - Hits
# The 10 first Pages must be first (order not required for others)
BEGIN_PAGEREFS 0
END_PAGEREFS

# Search keyphrases - Number of search
# The 10 first number of search must be first (order not required for others)
BEGIN_SEARCHWORDS 0
END_SEARCHWORDS

# Search keywords - Number of search
# The 10 first number of search must be first (order not required for others)
BEGIN_KEYWORDS 0
END_KEYWORDS

# Errors - Hits - Bandwidth
BEGIN_ERRORS 3
302 322 0
206 4 214979
404 4 37288
END_ERRORS

# URL with 404 errors - Hits - Last URL referer
BEGIN_SIDER_404 1
/data/restoransPhoto/original/71.jpg 4 http://adm.gedza.ru/restorans/item/2
END_SIDER_404

# Host - Pages - Hits - Bandwidth - Last visit date - [Start date of last visit] - [Last page of last visit]
# [Start date of last visit] and [Last page of last visit] are saved only if session is not finished
# The 10 first Hits must be first (order not required for others)
BEGIN_VISITOR 5
85.113.54.50 766 1195 36126789 20150130145711
46.0.194.60 20 66 1478486 20150104184118
195.144.217.62 18 53 1198605 20150114120454
188.122.244.18 8 43 1068624 20150114115828
46.0.188.55 6 13 97454 20150104190724
END_VISITOR

# Date - Pages - Hits - Bandwidth - Visits
BEGIN_DAY 11
20150104 26 79 1575940 2
20150113 23 85 6571245 1
20150114 282 411 8621377 4
20150115 151 203 3815090 2
20150116 38 48 724146 1
20150119 35 80 1577846 2
20150120 52 79 4534847 3
20150121 5 11 245601 1
20150123 49 70 1528771 1
20150129 34 98 7338895 1
20150130 123 206 3436200 2
END_DAY

# Session range - Number of visits
BEGIN_SESSION 6
1h+ 2
5mn-15mn 4
15mn-30mn 4
30s-2mn 3
0s-30s 2
30mn-1h 5
END_SESSION

# URL - Pages - Bandwidth - Entry - Exit
# The 10 first Pages must be first (order not required for others)
BEGIN_SIDER 232
/menu/index/100 59 1824653 0 0
/team/workers/ 58 1120189 0 4
/menu/index/138 32 636852 0 0
/site/login 31 201519 19 0
/ 29 254020 1 0
/menu/index 29 360555 0 0
/menu/index/175 28 539527 0 0
/menu/index/139 26 456322 0 1
/pages/index 19 251423 0 0
/menu/index/142/ 14 428324 0 0
/menu/dish/139/782/ 2 41554 0 0
/menu/dish/175/1315/ 1 20643 0 0
/menu/dish/138/2371/ 1 20698 0 0
/team/worker/35/ 1 14596 0 0
/menu/dish/100/133/ 1 20683 0 0
/menu/index/216 3 56508 0 1
/menu/dish/100/102/ 1 20657 0 0
/pages/item/22/ 5 79520 0 0
/menu/dish/100/141/ 1 20743 0 0
/menu/dish/100/130/ 1 20717 0 0
/menu/dish/138/2372/ 2 41464 0 0
/news2/item/26/ 1 17445 0 0
/team/workers 11 207869 0 0
/menu/dish/100/142/ 2 41439 0 0
/team/worker/39/ 2 29116 0 0
/menu/index/132/ 1 11610 0 0
/news/item/1/78/ 1 17209 0 0
/menu/dish/138/780/ 4 84176 0 0
/site/banners 4 45136 0 0
/menu/dish/100/123/ 1 20703 0 0
/menu/dish/100/120/ 1 20654 0 0
/team/worker/3/ 1 14540 0 0
/menu/section/0/142/ 1 17111 0 0
/menu/dish/100/117/ 2 41235 0 0
/menu/index/143 7 178283 0 1
/menu/dish/100/145/ 2 41323 0 0
/menu/dish/100/110/ 2 41339 0 0
/team/worker/41/ 2 29140 0 0
/team/worker/22/ 1 14595 0 0
/assets/b6e09df6/redactor-font.eot 1 6224 0 0
/menu/index/173 3 50451 0 0
/site/banners/ 5 56491 0 0
/team/worker/21/ 3 43632 0 0
/menu/index/138/ 8 160078 0 1
/menu/dish/100/104/ 1 20673 0 0
/menu/dish/175 5 100590 0 0
/restorans/item/2 5 106685 0 0
/menu/dish/100/114/ 2 41335 0 0
/pages/item/23/ 2 25372 0 1
/news2/item/39/ 6 102348 0 0
/site/mainMenu/36/ 2 22202 0 0
/team/worker/34/ 2 29090 0 0
/menu/dish/100/140/ 1 20743 0 0
/settings/index 3 45696 0 1
/menu/index/141/ 2 45256 0 0
/menu/dish/138 7 140798 0 0
/pages/item/25/ 1 16145 0 0
/menu/index/140/ 10 305761 0 1
/menu/dish/131/745/ 1 20723 0 0
/team/worker/29/ 3 43749 0 0
/menu/dish/100/112/ 2 41321 0 0
/news/presents 1 11626 0 0
/menu/dish/100/124/ 1 20677 0 0
/menu/dish/139/784/ 2 41498 0 0
/team/worker/27/ 3 43629 0 0
/menu/dish/100/109/ 2 41339 0 0
/menu/dish/138/2373/ 1 20723 0 0
/menu/dish/138/779/ 1 20610 0 0
/menu/dish/100/139/ 1 20637 0 0
/menu/index/100/ 7 216303 0 1
/menu/dish/100/106/ 1 20687 0 0
/site/mainMenu/20/ 1 11114 0 0
/site/selectMenuItem/2/ 1 13578 0 0
/menu/dish/139/2366/ 2 41505 0 0
/menu/dish/100/118/ 1 20684 0 0
/menu/dish/100/119/ 1 20684 0 0
/menu/dish/139/2367/ 2 41571 0 0
/team/worker 7 99352 0 0
/menu/index/139/ 3 50966 0 0
/mobile/index 5 48611 0 0
/site/bannerItem/6/ 3 43998 0 0
/menu/dish/100/129/ 1 20659 0 0
/team/worker/20/ 1 14593 0 0
/menu/dish/138/773/ 4 82668 0 0
/menu/dish/173/1300/ 1 20825 0 0
/site/mainMenu/45/ 1 11101 0 0
/menu/dish/138/2370/ 2 41494 0 0
/menu/dish/100/105/ 1 20735 0 0
/menu/index/140 6 183447 0 0
/menu/dish/139/785/ 1 20750 0 0
/site/mainMenu/8 2 24860 0 0
/team/worker/31/ 1 14568 0 0
/news/item/1/63/ 1 17482 0 0
/news2/ 11 174956 0 4
/menu/dish/175/1319/ 2 41178 0 0
/menu/dish/200/1861/ 1 20774 0 0
/menu/dish/175/2380/ 2 41306 0 0
/menu/dish/173/1301/ 1 20879 0 0
/menu/dish/100/135/ 1 20724 0 0
/news/item/1/80/ 2 34458 0 0
/menu/dish/100/116/ 2 41235 0 0
/site/mainMenuItem/0/23/ 1 13104 0 0
/menu/index/130/ 1 16762 0 0
/menu/dish/100/137/ 1 20681 0 0
/menu/dish/130/722/ 1 20871 0 0
/team/worker/36/ 1 14614 0 0
/menu/index/134/ 1 15288 0 0
/news/item/2 1 16489 0 0
/news/item/2/46/ 1 17487 0 0
/menu/ 4 49702 0 0
/menu/dish/138/2375/ 1 20649 0 0
/pages/item/27/ 1 13657 0 0
/team/worker/6/ 1 14595 0 0
/team/worker/24/ 5 72956 0 0
/menu/dish/175/2381/ 1 20729 0 0
/menu/dish/175/1326/ 3 62185 0 0
/news/2 2 32483 0 0
/menu/index/175/ 6 114444 0 0
/news/item/2/81/ 1 17012 0 0
/restorans/index 2 22164 0 0
/menu/dish/175/2377/ 1 20702 0 0
/menu/dish/100/138/ 1 20637 0 0
/menu/index/239 1 18816 0 0
/team/worker/13/ 1 14562 0 0
/news2/item/27/ 1 17468 0 0
/plugins/font-awesome/font/fontawesome-webfont.woff 7 305004 0 0
/news/item/1/56/ 1 17308 0 0
/menu/index/216/ 2 37674 0 0
/menu/dish/100/127/ 1 20696 0 0
/menu/dish/175/1325/ 1 20618 0 0
/menu/index/173/ 1 16814 0 0
/menu/dish/100/126/ 1 20696 0 0
/news2/item/35/ 1 17089 0 0
/menu/dish/138/778/ 1 20598 0 0
/pages/item/24/ 2 26807 0 0
/menu/dish/100/131/ 1 20717 0 0
/team/worker/38/ 12 174660 0 0
/news/item/1/58/ 1 17447 0 0
/menu/dish/175/1316/ 1 20569 0 0
/news/item/1/55/ 1 17311 0 0
/team/worker/28/ 1 14581 0 0
/menu/index/200 1 18831 0 0
/menu/dish/138/770/ 1 20561 0 0
/news/2/ 5 82370 0 0
/menu/dish/139/783/ 2 41498 0 0
/menu/dish/138/769/ 1 20635 0 0
/menu/dish/138/2374/ 1 20752 0 0
/news2 7 110715 0 0
/menu/dish/138/772/ 2 41314 0 0
/menu/dish/139/2364/ 2 41597 0 0
/menu/index/131 1 17651 0 0
/menu/index/200/ 1 18832 0 0
/menu/dish/100/111/ 1 20616 0 0
/mobile/ 6 58338 0 2
/site/mainMenuItem/8/12/ 3 39711 0 0
/menu/dish/175/2376/ 2 41520 0 0
/news2/item 2 33086 0 0
/team/worker/23/ 1 14578 0 0
/menu/index/131/ 1 17652 0 0
/menu/dish/100/103/ 1 20635 0 0
/site/mainMenuItem/8/11/ 2 26430 0 1
/menu/dish/139 6 120696 0 0
/site/mainMenuItem/0/8/ 3 39267 0 0
/news/item/1/73/ 1 17228 0 0
/site/mainMenu/1/ 2 23876 0 0
/menu/dish/239/2239/ 1 20757 0 0
/team/worker/11/ 1 14583 0 0
/news/item/2/79/ 1 17209 0 0
/news/item/2/69/ 1 17303 0 0
/site/bannerItem/7/ 1 14649 0 0
/menu/dish/139/2365/ 2 41515 0 0
/menu/dish/100/125/ 1 20634 0 0
/site/selectMenu 2 25022 0 0
/menu/section/142/212/ 1 17245 0 0
/team/worker/9/ 1 14539 0 0
/news2/item/40/ 1 17091 0 0
/menu/dish/175/1317/ 1 20565 0 0
/menu/dish/139/786/ 2 41466 0 0
/menu/dish/100/144/ 2 41323 0 0
/news/1 4 58221 0 0
/team/photo 2 23930 0 0
/site/mainMenu 14 218145 0 0
/news/item/1/29/ 1 17708 0 0
/site/mainMenu/17/ 1 12353 0 0
/pages/item/21/ 4 50794 0 0
/menu/dish/139/2368/ 1 20788 0 0
/menu/dish/175/1318/ 2 41330 0 0
/menu/dish/138/777/ 1 20581 0 0
/menu/dish/100/115/ 2 41335 0 0
/team/worker/37/ 1 14558 0 0
/menu/section/140/100/ 1 17199 0 0
/menu/dish/100/108/ 2 41311 0 0
/menu/dish/139/790/ 1 20557 0 0
/news/item/1 1 16483 0 0
/team/worker/14/ 1 14550 0 0
/menu/dish/100/113/ 2 41321 0 0
/menu/dish/130/721/ 1 20817 0 0
/menu/dish/130/723/ 1 20799 0 0
/site/mainMenu/0 4 60518 0 0
/site/bannerItem/9/ 1 14643 0 0
/menu/dish/139/2369/ 1 20808 0 0
/menu/dish/100/143/ 2 41441 0 0
/menu/dish/100/132/ 1 20683 0 0
/menu/index/142 8 244752 0 0
/menu/index/143/ 5 127350 0 0
/site/bannerItem/8/ 1 14658 0 0
/news/item/1/57/ 1 17331 0 0
/plugins/font-awesome/font/fontawesome-webfont.eot 1 0 0 0
/menu/dish/100/128/ 1 20659 0 0
/menu/dish/100/107/ 2 41311 0 0
/menu/dish/173/1302/ 1 20807 0 0
/menu/index/130 3 50295 0 1
/menu/dish/138/771/ 1 20557 0 0
/menu/dish/138/2379/ 1 20709 0 0
/menu/dish/175/1323/ 1 20589 0 0
/menu/dish/216/1955/ 3 62330 0 0
/news/1/ 12 175954 0 0
/menu/dish/175/1324/ 3 62088 0 0
/menu/index/239/ 2 37634 0 0
/menu/dish/138/776/ 1 20585 0 0
/team/worker/30/ 1 14598 0 0
/offers/index 1 14416 0 0
/menu/dish/100/122/ 1 20703 0 0
/team/worker/16/ 1 14548 0 0
/menu/dish/100/101/ 1 20772 0 0
/news/item/1/72/ 1 17199 0 0
/menu/dish/175/2378/ 1 20713 0 0
/menu/dish/100/121/ 1 20652 0 0
/menu/dish/100/134/ 1 20724 0 0
/menu/dish/175/1322/ 1 20593 0 0
/menu/dish/100/136/ 1 20681 0 0
/site/mainMenu/8/ 5 62182 0 0
END_SIDER
