AWSTATS DATA FILE 7.0 (build 1.971)
# If you remove this file, all statistics for date 201412 will be lost/reset.
# Last config file used to build this data file was /etc/awstats/awstats.adm.gedza.ru.conf.

# Position (offset in bytes) in this file for beginning of each section for
# direct I/O access. If you made changes somewhere in this file, you should
# also remove completely the MAP section (AWStats will rewrite it at next
# update).
BEGIN_MAP 27
POS_GENERAL 1992                
POS_TIME 2663                
POS_VISITOR 6474                
POS_DAY 7177                
POS_DOMAIN 3325                
POS_LOGIN 3557                
POS_ROBOT 3712                
POS_WORMS 3844                
POS_EMAILSENDER 3975                
POS_EMAILRECEIVER 4118                
POS_SESSION 7627                
POS_SIDER 7833                
POS_FILETYPES 4253                
POS_DOWNLOADS 4473                
POS_OS 4521                
POS_BROWSER 4595                
POS_SCREENSIZE 4774                
POS_UNKNOWNREFERER 4848                
POS_UNKNOWNREFERERBROWSER 4935                
POS_ORIGIN 5017                
POS_SEREFERRALS 5154                
POS_PAGEREFS 5298                
POS_SEARCHWORDS 5446                
POS_KEYWORDS 5598                
POS_MISC 2325                
POS_ERRORS 5657                
POS_CLUSTER 3413                
POS_SIDER_404 5768                
END_MAP

# LastLine    = Date of last record processed - Last record line number in last log - Last record offset in last log - Last record signature value
# FirstTime   = Date of first visit for history file
# LastTime    = Date of last visit for history file
# LastUpdate  = Date of last update - Nb of parsed records - Nb of parsed old records - Nb of parsed new records - Nb of parsed corrupted - Nb of parsed dropped
# TotalVisits = Number of visits
# TotalUnique = Number of unique visitors
# MonthHostsKnown   = Number of hosts known
# MonthHostsUnKnown = Number of hosts unknown
BEGIN_GENERAL 8
LastLine 20150104180306 1 0 27165102898
FirstTime 20141201085234
LastTime 20141230111128
LastUpdate 20150104181001 1 0 0 0 0
TotalVisits 33                  
TotalUnique 16                  
MonthHostsKnown 0                   
MonthHostsUnknown 16                  
END_GENERAL

# Misc ID - Pages - Hits - Bandwidth
BEGIN_MISC 10
QuickTimeSupport 0 0 0
JavaEnabled 0 0 0
JavascriptDisabled 0 0 0
PDFSupport 0 0 0
WindowsMediaPlayerSupport 0 0 0
AddToFavourites 0 413 0
RealPlayerSupport 0 0 0
TotalMisc 0 0 0
DirectorSupport 0 0 0
FlashSupport 0 0 0
END_MISC

# Hour - Pages - Hits - Bandwidth - Not viewed Pages - Not viewed Hits - Not viewed Bandwidth
BEGIN_TIME 24
0 0 0 0 0 0 0
1 0 0 0 0 0 0
2 14 48 163771 3 11 54553
3 0 0 0 0 0 0
4 0 0 0 0 0 0
5 0 0 0 0 0 0
6 0 0 0 0 0 0
7 0 0 0 0 0 0
8 42 96 2077469 21 60 508687
9 190 261 5849937 86 272 2308105
10 20 34 715555 9 30 224107
11 27 77 1639115 13 31 118547
12 139 387 15023779 64 184 1296569
13 64 119 2230937 25 64 424558
14 20 37 989222 8 23 140315
15 59 167 4223591 26 67 456352
16 2 28 910366 0 0 0
17 59 323 2972631 12 27 72063
18 14 36 317569 3 14 88451
19 16 50 1085328 10 23 6173
20 0 0 0 0 0 0
21 0 0 0 0 0 0
22 0 0 0 0 0 0
23 0 0 0 0 0 0
END_TIME

# Domain - Pages - Hits - Bandwidth
# The 10 first Pages must be first (order not required for others)
BEGIN_DOMAIN 1
ip 666 1663 38199270
END_DOMAIN

# Cluster ID - Pages - Hits - Bandwidth
BEGIN_CLUSTER 0
END_CLUSTER

# Login - Pages - Hits - Bandwidth - Last visit
# The 10 first Pages must be first (order not required for others)
BEGIN_LOGIN 0
END_LOGIN

# Robot ID - Hits - Bandwidth - Last visit - Hits on robots.txt
# The 10 first Hits must be first (order not required for others)
BEGIN_ROBOT 0
END_ROBOT

# Worm ID - Hits - Bandwidth - Last visit
# The 5 first Hits must be first (order not required for others)
BEGIN_WORMS 0
END_WORMS

# EMail - Hits - Bandwidth - Last visit
# The 20 first Hits must be first (order not required for others)
BEGIN_EMAILSENDER 0
END_EMAILSENDER

# EMail - Hits - Bandwidth - Last visit
# The 20 first hits must be first (order not required for others)
BEGIN_EMAILRECEIVER 0
END_EMAILRECEIVER

# Files type - Hits - Bandwidth - Bandwidth without compression - Bandwidth after compression
BEGIN_FILETYPES 8
css 272 2432041 0 0
png 70 325456 0 0
html 328 5524956 0 0
jpg 332 17949201 0 0
js 319 4161756 0 0
woff 8 305004 0 0
Unknown 330 7499387 0 0
gif 4 1469 0 0
END_FILETYPES

# Downloads - Hits - Bandwidth
BEGIN_DOWNLOADS 0
END_DOWNLOADS

# OS ID - Hits
BEGIN_OS 3
linuxubuntu 330
linux 76
win7 1257
END_OS

# Browser ID - Hits
BEGIN_BROWSER 7
firefox32.0 76
chrome39.0.2171.95 247
firefox34.0 28
chrome37.0.2062.120 330
opera9.80 381
firefox11.0 50
chrome39.0.2171.71 551
END_BROWSER

# Screen size - Hits
BEGIN_SCREENSIZE 0
END_SCREENSIZE

# Unknown referer OS - Last visit date
BEGIN_UNKNOWNREFERER 0
END_UNKNOWNREFERER

# Unknown referer Browser - Last visit date
BEGIN_UNKNOWNREFERERBROWSER 0
END_UNKNOWNREFERERBROWSER

# Origin - Pages - Hits 
BEGIN_ORIGIN 6
From0 24 24
From1 0 0
From2 0 0
From3 0 0
From4 642 1639
From5 0 0
END_ORIGIN

# Search engine referers ID - Pages - Hits
BEGIN_SEREFERRALS 0
END_SEREFERRALS

# External page referers - Pages - Hits
# The 10 first Pages must be first (order not required for others)
BEGIN_PAGEREFS 0
END_PAGEREFS

# Search keyphrases - Number of search
# The 10 first number of search must be first (order not required for others)
BEGIN_SEARCHWORDS 0
END_SEARCHWORDS

# Search keywords - Number of search
# The 10 first number of search must be first (order not required for others)
BEGIN_KEYWORDS 0
END_KEYWORDS

# Errors - Hits - Bandwidth
BEGIN_ERRORS 3
302 271 0
500 9 22371
404 25 229811
END_ERRORS

# URL with 404 errors - Hits - Last URL referer
BEGIN_SIDER_404 6
/data/restoransPhoto/original/46.jpg 4 http://adm.gedza.ru/restorans/item/4
/data/restoransPhoto/original/59.jpg 1 http://adm.gedza.ru/restorans/item/1
/robots.txt 1 -
/data/restoransPhoto/original/50.jpg 3 http://adm.gedza.ru/restorans/item/4
/data/restoransPhoto/original/71.jpg 13 http://adm.gedza.ru/restorans/item/2
/data/restoransPhoto/original/54.jpg 3 http://adm.gedza.ru/restorans/item/4
END_SIDER_404

# Host - Pages - Hits - Bandwidth - Last visit date - [Start date of last visit] - [Last page of last visit]
# [Start date of last visit] and [Last page of last visit] are saved only if session is not finished
# The 10 first Hits must be first (order not required for others)
BEGIN_VISITOR 16
85.113.54.50 341 876 25582773 20141230111128
46.0.96.14 134 199 4776752 20141201101345
85.114.165.39 57 295 2062265 20141225175442
46.0.72.9 47 57 1027693 20141201091458
46.0.92.30 29 38 789012 20141201090136
46.0.68.0 18 25 497234 20141201085815
85.114.170.119 14 48 163771 20141222024435
46.0.60.22 6 6 143358 20141201090246
46.0.76.17 5 10 140127 20141201085637
46.0.80.24 4 12 70410 20141201085532
46.0.76.24 1 1 30574 20141201085535
92.240.138.241 4 35 942841 20141222132013
46.0.96.0 1 2 44217 20141201091905
46.0.64.17 2 30 1009122 20141201085235
109.226.70.24 2 28 910366 20141203171134
46.0.88.26 1 1 8755 20141201090327
END_VISITOR

# Date - Pages - Hits - Bandwidth - Visits
BEGIN_DAY 16
20141201 283 430 9494928 12
20141202 24 33 443586 1
20141203 18 78 1995694 2
20141204 17 48 335832 1
20141205 48 58 1004952 1
20141208 37 276 14106935 2
20141209 25 61 2752285 1
20141210 4 5 71357 1
20141211 6 11 139351 1
20141212 4 10 105707 1
20141218 16 64 1227935 2
20141222 35 131 1407628 3
20141223 6 8 121655 1
20141225 90 343 2832328 2
20141226 38 50 788212 1
20141230 15 57 1370885 1
END_DAY

# Session range - Number of visits
BEGIN_SESSION 7
1h+ 2
5mn-15mn 5
2mn-5mn 5
0s-30s 10
30s-2mn 3
15mn-30mn 3
30mn-1h 5
END_SESSION

# URL - Pages - Bandwidth - Entry - Exit
# The 10 first Pages must be first (order not required for others)
BEGIN_SIDER 216
/news2/ 35 529489 1 3
/menu/index/140 33 1009285 1 3
/menu/index/193 32 1387148 0 0
/menu/index/113 32 1380151 0 1
/news2 29 438934 0 0
/news/1 25 362866 0 0
/restorans/item/2 24 490749 11 0
/menu/index/141 22 497894 0 1
/menu/index 21 261031 1 2
/ 17 140026 2 1
/menu/section/140/231/ 1 17225 0 0
/news/item/2/60/ 1 17254 0 0
/menu/dish/134/746/ 1 20779 0 0
/menu/dish/131/740/ 1 20722 0 0
/menu/section/140/238/ 2 34379 0 0
/news/item/2/70/ 1 18726 0 0
/menu/section/140/233/ 1 17179 0 0
/menu/dish/193/1655/ 1 20567 0 0
/menu/section/140/109/ 1 17226 0 0
/menu/section/141/184/ 1 17217 0 0
/menu/section/141/246/ 1 17189 0 0
/restorans/deleteRestoranImage/ 4 0 0 0
/menu/dish/193/2349/ 1 20611 0 0
/team/workers 1 18203 0 0
/menu/dish/193/1654/ 1 20623 0 0
/site/banners 2 22551 0 0
/menu/section/141/185/ 1 17234 0 0
/news2/item/9/ 1 17869 0 0
/review/index 2 31034 0 1
/menu/section/140/97/ 1 17211 0 0
/menu/dish/113/2332/ 1 20630 0 0
/menu/dish/113/356/ 1 20585 0 0
/menu/section/140/237/ 1 17202 0 0
/menu/dish/113/361/ 1 20566 0 0
/menu/section/140/229/ 1 17179 0 0
/menu/dish/193/2358/ 1 20646 0 0
/news/item/1/42/ 1 18279 0 0
/menu/section/140/228/ 1 17185 1 0
/restorans/item/1/ 1 18873 0 0
/site/banners/ 4 45104 0 0
/menu/dish/193/1682/ 1 20562 0 0
/menu/dish/113/371/ 1 20583 0 0
/menu/dish/193/1638/ 1 20550 1 0
/menu/section/140/99/ 1 17238 0 0
/menu/dish/193/2351/ 1 20637 0 0
/menu/saveSortSection/ 3 3 0 0
/news/item/2/71/ 3 55577 0 0
/settings/index 3 45712 0 1
/menu/dish/113/2331/ 1 20635 0 0
/menu/index/141/ 5 113139 0 0
/menu/saveSortDish/ 2 2 0 0
/menu/dish/193/1643/ 1 20589 0 0
/menu/index/140/ 8 244602 1 2
/menu/section/140/102/ 1 17230 0 0
/menu/section/140/103/ 1 17213 0 0
/menu/dish/113/2340/ 1 20618 0 0
/news/presents 11 127823 0 0
/menu/section/141/181/ 1 17219 0 0
/news/present/6/ 2 15090 0 0
/menu/dish/235/2212/ 1 20688 0 0
/menu/dish/113/2337/ 1 20641 0 0
/menu/section/140/110/ 1 17224 1 0
/menu/index/234 1 15437 0 0
/menu/dish/113/368/ 1 20573 0 0
/menu/dish/244/2305/ 1 20694 0 0
/menu/dish/113/394/ 1 20554 0 0
/menu/index/235 3 47217 0 0
/menu/dish/113/358/ 1 20571 0 0
/news/item/1/75/ 3 52598 0 0
/menu/section/141/183/ 1 17234 0 0
/menu/dish/235/2209/ 1 20684 0 0
/mobile/index 5 48619 0 0
/news2/item/29/ 1 17886 0 0
/menu/dish/113/353/ 1 20581 0 0
/news2/item/38/ 6 103588 0 0
/menu/dish/113/2339/ 1 20624 0 0
/news2/item/31/ 2 34537 0 0
/news/present/5/ 2 14492 0 0
/pages/index 1 13235 0 0
/menu/section/140/234/ 1 17183 0 0
/menu/section/141/188/ 1 17223 0 0
/news/item/1/63/ 1 17481 0 0
/news/item/2/77/ 1 17251 0 0
/menu/section/141/241/ 2 34383 0 0
/menu/dish/193/2357/ 1 20655 0 0
/menu/dish/193/2345/ 1 20600 0 0
/site/login 12 77116 10 0
/menu/dish/193/2354/ 1 20636 0 0
/menu/dish/133/732/ 1 20659 0 0
/menu/dish/113/354/ 1 20585 0 0
/menu/dish/193/2356/ 1 20640 0 0
/menu/dish/193/2352/ 1 20636 0 0
/menu/index/244 3 47229 0 0
/menu/index/134/ 1 15287 0 0
/news/item/2 2 32972 0 0
/menu/section/140/96/ 1 17209 0 1
/menu/ 2 24852 0 0
/menu/dish/193/1672/ 1 20566 0 0
/menu/section/140/105/ 1 17224 0 0
/menu/dish/193/2362/ 1 20637 0 0
/menu/dish/193/1647/ 1 20577 0 0
/menu/index/142/ 3 91774 0 0
/menu/dish/113/2327/ 1 20578 0 0
/news/2 15 240647 0 0
/menu/section/141/239/ 2 34387 0 0
/menu/dish/113/355/ 1 20581 0 0
/menu/dish/113/2343/ 1 20618 0 0
/restorans/index 4 44385 0 1
/menu/dish/244/2307/ 1 20688 0 0
/news2/item/37/ 4 68457 0 0
/menu/index/239 1 18815 0 1
/menu/section/141/245/ 2 34411 0 0
/menu/dish/113/2336/ 1 20632 0 0
/menu/dish/193/1648/ 1 20571 0 0
/menu/section/141/187/ 1 17223 0 0
/plugins/font-awesome/font/fontawesome-webfont.woff 8 305004 0 3
/menu/dish/239/2241/ 1 20780 0 0
/menu/section/140/230/ 1 17202 0 0
/menu/dish/113/2335/ 1 20632 0 0
/menu/index/194/ 1 17701 0 1
/news2/item/35/ 3 51350 0 0
/menu/index/244/ 1 15744 0 0
/menu/index/234/ 2 30876 0 0
/menu/dish/193/1649/ 1 20574 0 0
/news/item/1/41/ 2 35130 0 0
/menu/section/0/141/ 1 17108 0 0
/menu/dish/193/2350/ 1 20634 0 0
/news/item/1/55/ 1 17294 0 0
/menu/dish/193/1641/ 1 20589 0 0
/menu/section/140/101/ 1 17217 0 0
/restorans/item/1 12 248683 0 1
/news2/item/16/ 1 17390 0 0
/menu/section/141/240/ 2 34425 0 0
/restorans/item/4 14 285762 1 1
/menu/section/141/244/ 1 17198 0 0
/news/presents/ 3 34842 0 1
/menu/dish/113/2341/ 1 20633 0 0
/news/2/ 11 178421 0 1
/menu/section/141/242/ 2 34387 0 0
/menu/dish/131/741/ 1 20673 0 0
/menu/section/140/232/ 1 17185 0 0
/menu/dish/113/2342/ 1 20610 0 0
/menu/index/131 3 52944 0 0
/mobile/ 11 106944 0 1
/news/present/7/ 2 16843 0 0
/menu/dish/113/2338/ 1 20624 0 0
/menu/dish/113/2328/ 1 20607 0 0
/news2/item 3 49645 0 0
/menu/index/131/ 1 17645 0 0
/menu/dish/113/2330/ 1 20629 0 0
/menu/section/140/104/ 1 17230 0 0
/menu/dish/131/739/ 1 20771 0 0
/menu/section/142/133/ 1 17292 0 0
/news/item/1/48/ 2 34666 0 0
/menu/section/140/227/ 1 17181 0 0
/menu/dish/113/350/ 1 20542 0 0
/menu/dish/113/2334/ 1 20629 0 0
/menu/dish/113/2333/ 1 20633 0 0
/site/bannerItem/7/ 1 14648 0 0
/news/item/2/69/ 1 17302 0 0
/menu/dish/193/1656/ 1 20581 0 0
/menu/dish/113/2329/ 1 20625 0 0
/menu/dish/113/384/ 1 20558 0 0
/site/selectMenu 1 12511 0 0
/menu/dish/193/2348/ 1 20639 0 0
/menu/dish/244/2309/ 1 20710 0 0
/menu/section/140/107/ 1 17219 0 0
/menu/section/141/182/ 1 17221 0 0
/team/photo 1 11968 0 0
/site/mainMenu 3 46200 0 0
/menu/index/113/ 1 43120 0 0
/menu/dish/193/2347/ 1 20629 0 0
/menu/index/193/ 1 43339 1 1
/menu/dish/193/2360/ 1 20632 0 0
/menu/dish/193/1644/ 1 20593 0 0
/menu/dish/193/1657/ 1 20560 0 0
/menu/dish/193/1646/ 1 20579 0 0
/menu/section/140/100/ 1 17215 1 0
/news/item/1 2 32971 0 0
/menu/dish/235/2207/ 1 20671 0 0
/news2/item/33/ 1 17228 0 0
/menu/dish/193/1642/ 1 20593 0 0
/menu/dish/193/2359/ 1 20646 0 0
/site/bannerItem/9/ 2 29284 0 0
/restorans/item/4/ 1 18386 0 0
/menu/index/133/ 1 13601 0 0
/menu/index/142 1 30591 0 0
/menu/index/143/ 1 25469 0 0
/news2/item/30/ 3 51347 0 0
/menu/dish/193/2355/ 1 20645 0 0
/menu/section/140/236/ 2 34439 0 0
/menu/section/141/243/ 2 34412 0 0
/menu/section/140/235/ 2 34405 0 0
/menu/dish/113/359/ 1 20569 0 0
/news/item/1/57/ 1 17330 0 0
/news2/item/12/ 2 35610 0 0
/news2/item/36/ 1 17182 0 0
/menu/dish/113/367/ 1 20559 0 0
/menu/dish/193/2361/ 1 20640 0 0
/news/item/1/74/ 1 17242 0 0
/news/1/ 14 202484 0 5
/menu/dish/113/2344/ 1 20596 0 0
/menu/index/239/ 1 18816 0 0
/news/dishActions 5 54651 0 0
/menu/dish/193/2353/ 1 20633 0 0
/menu/index/235/ 1 15740 0 0
/menu/dish/193/2346/ 1 20633 0 0
/menu/dish/113/369/ 1 20552 0 0
/offers/index 1 14408 0 0
/news2/item/32/ 6 104396 0 0
/menu/dish/234/2197/ 1 20735 0 0
/news2/item/11/ 1 17512 0 0
/menu/section/140/137/ 1 17286 0 0
/menu/section/140/106/ 1 17219 0 0
/menu/section/141/186/ 1 17228 0 0
/menu/section/140/98/ 1 17232 0 0
END_SIDER
